﻿{
  "status": 422,
  "message": "Validation error",
  "timestamp": "2020-10-25T21:52:38.974Z",
  "alerts": [
    {
      "name": "number.out_of_range",
      "details": { "parameter": "page" }
    }
  ],
  "errors": [
    {
      "messages": [
        {
          "code": 11112,
          "name": "E_NUMBER_OUT_OF_RANGE",
          "details": { "parameter": "page" }
        }
      ]
    }
  ],
  "_": "[DEPRECATION WARNING] Property \"errors\" is deprecated and will be removed. Please use \"alerts\"."
}