﻿{
  "market": "xrpcad",
  "orders": [
    {
      "id": 1967728,
      "side": "bid",
      "strategy": "limit",
      "price": "0.46",
      "avg_price": "0.46",
      "state": "closed",
      "market": "xrpcad",
      "created_at": "2018-08-21T23:37:28Z",
      "volume": "965.2173",
      "remaining_volume": "0.0",
      "executed_volume": "965.2173",
      "trades_count": 1
    },
    {
      "id": 1967673,
      "side": "bid",
      "strategy": "market",
      "price": null,
      "avg_price": "0.44",
      "state": "closed",
      "market": "xrpcad",
      "created_at": "2018-08-21T23:37:02Z",
      "volume": "1.0",
      "remaining_volume": "0.0",
      "executed_volume": "1.0",
      "trades_count": 1
    }
  ],
  "timestamp": "2018-08-21T23:57:07.559Z",
  "took": "48ms"
}
