﻿{
  "markets": [
    {
      "market": "xrpeur",
      "timestamp": "2020-01-03T22:11:40.000Z",
      "bid": 0.1712,
      "ask": 0.1722,
      "low": 0.1647,
      "high": 0.1737,
      "last": 0.1716,
      "open": 0.1674,
      "vol": 8721532.1701
    }
  ],
  "timestamp": "2020-01-03T22:11:40.768Z",
  "took": "9ms"
}
